{
  "project_info": {
    "project_number": "799928411104",
    "firebase_url": "https://serversensor-j4zz1x.firebaseio.com",
    "project_id": "serversensor-j4zz1x",
    "storage_bucket": "serversensor-j4zz1x.appspot.com"
  },
  "client": [
    {
      "client_info": {
        "mobilesdk_app_id": "1:799928411104:android:0dd7e32095485524e88185",
        "android_client_info": {
          "package_name": "com.j4zz1x.servernotificationsystem"
        }
      },
      "oauth_client": [
        {
          "client_id": "799928411104-oiuldi705qcq98m4qgs0nuc7pvmkndeh.apps.googleusercontent.com",
          "client_type": 1,
          "android_info": {
            "package_name": "com.j4zz1x.servernotificationsystem",
            "certificate_hash": "99344329e711a65f9c747b56c35e8872c000de73"
          }
        },
        {
          "client_id": "799928411104-6va2s0tib09v1qf7noc2dm9h8rq1fbl5.apps.googleusercontent.com",
          "client_type": 3
        }
      ],
      "api_key": [
        {
          "current_key": "AIzaSyCOSZfJNy9agVpzAnLZHZ2w9LnH1xgJuGk"
        }
      ],
      "services": {
        "appinvite_service": {
          "other_platform_oauth_client": [
            {
              "client_id": "799928411104-6va2s0tib09v1qf7noc2dm9h8rq1fbl5.apps.googleusercontent.com",
              "client_type": 3
            }
          ]
        }
      }
    }
  ],
  "configuration_version": "1"
}